nmigen/RISCV32I with compiler/all_stages/if_stage.vcd
$comment Generated by nMigen $end
$date 2022-01-11 21:31:46.206127 $end
$timescale 100 ps $end
$scope module top $end
$var wire 1 ! clk $end
$var wire 1 " rst $end
$var wire 5 # Pc $end
$var wire 5 $ Pc$1 $end
$var wire 32 % $signal $end
$var wire 32 & $signal$1 $end
$var wire 32 ' $signal$2 $end
$var wire 32 ( $signal$3 $end
$var wire 32 ) $signal$4 $end
$var wire 32 * $signal$5 $end
$var wire 32 + $signal$6 $end
$var wire 32 , $signal$7 $end
$var wire 32 - $signal$8 $end
$var wire 32 . $signal$9 $end
$var wire 32 / $signal$10 $end
$var wire 32 0 $signal$11 $end
$var wire 32 1 $signal$12 $end
$var wire 32 2 $signal$13 $end
$var wire 32 3 $signal$14 $end
$var wire 32 4 $signal$15 $end
$var wire 32 5 $signal$16 $end
$var wire 32 6 $signal$17 $end
$var wire 32 7 $signal$18 $end
$var wire 32 8 $signal$19 $end
$var wire 32 9 $signal$20 $end
$var wire 32 : $signal$21 $end
$var wire 32 ; $signal$22 $end
$var wire 32 < $signal$23 $end
$var wire 32 = $signal$24 $end
$var wire 32 > $signal$25 $end
$var wire 32 ? $signal$26 $end
$var wire 32 @ $signal$27 $end
$var wire 32 A $signal$28 $end
$var wire 32 B $signal$29 $end
$var wire 32 C $signal$30 $end
$var wire 32 D $signal$31 $end
$var wire 32 E $signal$32 $end
$var wire 32 F $signal$33 $end
$var wire 32 G $signal$34 $end
$var wire 32 H $signal$35 $end
$var wire 32 I $signal$36 $end
$var wire 32 J $signal$37 $end
$var wire 32 K $signal$38 $end
$var wire 32 L $signal$39 $end
$var wire 32 M $signal$40 $end
$var wire 32 N $signal$41 $end
$var wire 32 O $signal$42 $end
$var wire 32 P $signal$43 $end
$var wire 32 Q $signal$44 $end
$var wire 32 R $signal$45 $end
$var wire 32 S $signal$46 $end
$var wire 32 T $signal$47 $end
$var wire 32 U $signal$48 $end
$var wire 32 V $signal$49 $end
$var wire 32 W $signal$50 $end
$var wire 32 X $signal$51 $end
$var wire 32 Y $signal$52 $end
$var wire 32 Z $signal$53 $end
$var wire 32 [ $signal$54 $end
$var wire 32 \ $signal$55 $end
$var wire 32 ] $signal$56 $end
$var wire 32 ^ $signal$57 $end
$var wire 32 _ $signal$58 $end
$var wire 32 ` $signal$59 $end
$var wire 32 a $signal$60 $end
$var wire 32 b $signal$61 $end
$var wire 32 c $signal$62 $end
$var wire 32 d $signal$63 $end
$scope module if_stage $end
$var wire 1 ! clk $end
$var wire 1 " rst $end
$var wire 5 # Pc $end
$var wire 32 % $signal $end
$var wire 32 ' $signal$1 $end
$var wire 32 ) $signal$2 $end
$var wire 32 + $signal$3 $end
$var wire 32 - $signal$4 $end
$var wire 32 / $signal$5 $end
$var wire 32 1 $signal$6 $end
$var wire 32 3 $signal$7 $end
$var wire 32 5 $signal$8 $end
$var wire 32 7 $signal$9 $end
$var wire 32 9 $signal$10 $end
$var wire 32 ; $signal$11 $end
$var wire 32 = $signal$12 $end
$var wire 32 ? $signal$13 $end
$var wire 32 A $signal$14 $end
$var wire 32 C $signal$15 $end
$var wire 32 E $signal$16 $end
$var wire 32 G $signal$17 $end
$var wire 32 I $signal$18 $end
$var wire 32 K $signal$19 $end
$var wire 32 M $signal$20 $end
$var wire 32 O $signal$21 $end
$var wire 32 Q $signal$22 $end
$var wire 32 S $signal$23 $end
$var wire 32 U $signal$24 $end
$var wire 32 W $signal$25 $end
$var wire 32 Y $signal$26 $end
$var wire 32 [ $signal$27 $end
$var wire 32 ] $signal$28 $end
$var wire 32 _ $signal$29 $end
$var wire 32 a $signal$30 $end
$var wire 32 c $signal$31 $end
$var wire 32 e out $end
$upscope $end
$upscope $end
$enddefinitions $end
#0
$dumpvars
0!
0"
b0 #
b0 $
b0 %
b0 &
b0 '
b0 (
b0 )
b0 *
b0 +
b0 ,
b0 -
b0 .
b0 /
b0 0
b0 1
b0 2
b0 3
b0 4
b0 5
b0 6
b0 7
b0 8
b0 9
b0 :
b0 ;
b0 <
b0 =
b0 >
b0 ?
b0 @
b0 A
b0 B
b0 C
b0 D
b0 E
b0 F
b0 G
b0 H
b0 I
b0 J
b0 K
b0 L
b0 M
b0 N
b0 O
b0 P
b0 Q
b0 R
b0 S
b0 T
b0 U
b0 V
b0 W
b0 X
b0 Y
b0 Z
b0 [
b0 \
b0 ]
b0 ^
b0 _
b0 `
b0 a
b0 b
b0 c
b0 d
b0 e
$end
#5000
b1000000000010100010000011 <
b101001010000011000010011 0
1!
b101001010000011000010011 2
b1010000011010110011 4
b111001101000011100110011 6
b100 *
b1110000010100110011 8
b101000000010100000100011 :
b10100110011 .
#10000
0!
#15000
b1110000010100110011 7
1!
b101001010000011000010011 1
b101000000010100000100011 9
b1010000011010110011 3
b10100110011 -
b1000000000010100010000011 ;
b111001101000011100110011 5
b101001010000011000010011 /
b100 )
#20000
0!
#24999
1!
b1 $
#29999
0!
#34999
b1 #
1!
b10 $
#40000
0!
#45000
b10 #
1!
b11 $
#50000
0!
#55000
b11 #
1!
b100 e
b100 $
#60000
0!
#65000
b100 #
1!
b0 e
b101 $
#70000
0!
#75000
b101 #
1!
b10100110011 e
b110 $
#80000
0!
#85000
b110 #
1!
b101001010000011000010011 e
b111 $
#90000
0!
#95000
b111 #
1!
b1000 $
#100000
0!
#105000
b1000 #
1!
b1010000011010110011 e
b1001 $
#110000
0!
#115000
b1001 #
1!
b111001101000011100110011 e
b1010 $
#120000
0!
#125000
b1010 #
1!
b1110000010100110011 e
b1011 $
#130000
0!
#135000
b1011 #
1!
b101000000010100000100011 e
#140000
0!
#145000
1!
b1000000000010100010000011 e
